%YAML 1.1
%TAG !u! tag:unity3d.com,2011:
--- !u!114 &11400000
MonoBehaviour:
  m_ObjectHideFlags: 0
  m_CorrespondingSourceObject: {fileID: 0}
  m_PrefabInstance: {fileID: 0}
  m_PrefabAsset: {fileID: 0}
  m_GameObject: {fileID: 0}
  m_Enabled: 1
  m_EditorHideFlags: 0
  m_Script: {fileID: 11500000, guid: 935899b62f48ae5498594680ed17d133, type: 3}
  m_Name: DS TopDown Example Database
  m_EditorClassIdentifier: 
  version: 
  author: 
  description: 
  globalUserScript: 
  emphasisSettings:
  - color: {r: 1, g: 1, b: 1, a: 1}
    bold: 0
    italic: 0
    underline: 0
  - color: {r: 1, g: 0, b: 0, a: 1}
    bold: 0
    italic: 0
    underline: 0
  - color: {r: 0, g: 1, b: 0, a: 1}
    bold: 0
    italic: 0
    underline: 0
  - color: {r: 0, g: 0, b: 1, a: 1}
    bold: 0
    italic: 0
    underline: 0
  baseID: 1
  actors:
  - id: 1
    fields:
    - title: Name
      value: Player
      type: 0
      typeString: CustomFieldType_Text
    - title: Pictures
      value: '[]'
      type: 3
      typeString: CustomFieldType_Files
    - title: Description
      value: 
      type: 0
      typeString: CustomFieldType_Text
    - title: IsPlayer
      value: True
      type: 2
      typeString: CustomFieldType_Boolean
    - title: Display Name
      value: 
      type: 0
      typeString: CustomFieldType_Text
    - title: Age
      value: 0
      type: 1
      typeString: CustomFieldType_Number
    portrait: {fileID: 0}
    spritePortrait: {fileID: 0}
    alternatePortraits: []
    spritePortraits: []
  - id: 2
    fields:
    - title: Name
      value: Ninja
      type: 0
      typeString: CustomFieldType_Text
    - title: Pictures
      value: '[]'
      type: 3
      typeString: CustomFieldType_Files
    - title: Description
      value: 
      type: 0
      typeString: CustomFieldType_Text
    - title: IsPlayer
      value: False
      type: 2
      typeString: CustomFieldType_Boolean
    - title: Display Name
      value: 
      type: 0
      typeString: CustomFieldType_Text
    - title: Age
      value: 0
      type: 1
      typeString: CustomFieldType_Number
    portrait: {fileID: 0}
    spritePortrait: {fileID: 0}
    alternatePortraits: []
    spritePortraits: []
  - id: 3
    fields:
    - title: Name
      value: Sword Master
      type: 0
      typeString: CustomFieldType_Text
    - title: Pictures
      value: '[]'
      type: 3
      typeString: CustomFieldType_Files
    - title: Description
      value: 
      type: 0
      typeString: CustomFieldType_Text
    - title: IsPlayer
      value: False
      type: 2
      typeString: CustomFieldType_Boolean
    - title: Display Name
      value: 
      type: 0
      typeString: CustomFieldType_Text
    - title: Age
      value: 0
      type: 1
      typeString: CustomFieldType_Number
    portrait: {fileID: 0}
    spritePortrait: {fileID: 0}
    alternatePortraits: []
    spritePortraits: []
  - id: 4
    fields:
    - title: Name
      value: Spy
      type: 0
      typeString: CustomFieldType_Text
    - title: Pictures
      value: '[]'
      type: 3
      typeString: CustomFieldType_Files
    - title: Description
      value: 
      type: 0
      typeString: CustomFieldType_Text
    - title: IsPlayer
      value: False
      type: 2
      typeString: CustomFieldType_Boolean
    portrait: {fileID: 0}
    spritePortrait: {fileID: 0}
    alternatePortraits: []
    spritePortraits: []
  items:
  - id: 1
    fields:
    - title: Name
      value: Break Into Room
      type: 0
      typeString: CustomFieldType_Text
    - title: Display Name
      value: 
      type: 0
      typeString: CustomFieldType_Text
    - title: Is Item
      value: False
      type: 2
      typeString: CustomFieldType_Boolean
    - title: Description
      value: Help the spy infiltrate the evil ninja clan by breaking into the room
        above him.
      type: 0
      typeString: CustomFieldType_Text
    - title: Success Description
      value: 
      type: 0
      typeString: CustomFieldType_Text
    - title: Failure Description
      value: 
      type: 0
      typeString: CustomFieldType_Text
    - title: State
      value: unassigned
      type: 0
      typeString: CustomFieldType_QuestState
    - title: Entry 1 GoalAmount
      value: 
      type: 1
      typeString: CustomFieldType_Number
    - title: Entry 1 CurrentAmount
      value: 
      type: 1
      typeString: CustomFieldType_Number
    - title: Trackable
      value: True
      type: 2
      typeString: CustomFieldType_Boolean
    - title: Track
      value: True
      type: 2
      typeString: CustomFieldType_Boolean
    - title: QuestType
      value: 
      type: 0
      typeString: CustomFieldType_Text
    - title: Entry Count
      value: 0
      type: 1
      typeString: CustomFieldType_Number
    - title: Entry 1 State
      value: (None)
      type: 0
      typeString: CustomFieldType_QuestState
    - title: Entry 1
      value: 
      type: 0
      typeString: CustomFieldType_Text
    - title: Entry 2 State
      value: (None)
      type: 0
      typeString: CustomFieldType_QuestState
    - title: Entry 1 QuestType
      value: 
      type: 0
      typeString: CustomFieldType_Text
    - title: Entry 2
      value: 
      type: 0
      typeString: CustomFieldType_Text
    - title: Entry 2 QuestType
      value: 
      type: 0
      typeString: CustomFieldType_Text
    - title: Group
      value: 
      type: 0
      typeString: CustomFieldType_Text
    - title: Entry 1 Type
      value: 
      type: 0
      typeString: CustomFieldType_Text
    - title: Entry 2 Type
      value: 
      type: 0
      typeString: CustomFieldType_Text
    - title: Entry 2 CurrentAmount
      value: 
      type: 1
      typeString: CustomFieldType_Number
    - title: Entry 2 GoalAmount
      value: 
      type: 1
      typeString: CustomFieldType_Number
    - title: Entry 3
      value: 
      type: 0
      typeString: CustomFieldType_Text
    - title: Entry 3 Type
      value: 
      type: 0
      typeString: CustomFieldType_Text
    - title: Entry 3 State
      value: (None)
      type: 0
      typeString: CustomFieldType_QuestState
  - id: 2
    fields:
    - title: Name
      value: Get Ammo
      type: 0
      typeString: CustomFieldType_Text
    - title: Pictures
      value: '[]'
      type: 3
      typeString: CustomFieldType_Files
    - title: Description
      value: Give 5 rifle ammo to the spy.
      type: 0
      typeString: CustomFieldType_Text
    - title: Success Description
      value: 
      type: 0
      typeString: CustomFieldType_Text
    - title: Failure Description
      value: 
      type: 0
      typeString: CustomFieldType_Text
    - title: State
      value: unassigned
      type: 0
      typeString: CustomFieldType_QuestState
    - title: Is Item
      value: False
      type: 2
      typeString: CustomFieldType_Boolean
    - title: Trackable
      value: True
      type: 2
      typeString: CustomFieldType_Boolean
    - title: Track
      value: True
      type: 2
      typeString: CustomFieldType_Boolean
  locations: []
  variables:
  - id: 1
    fields:
    - title: Name
      value: Alert
      type: 0
      typeString: 
    - title: Initial Value
      value: 
      type: 0
      typeString: 
    - title: Description
      value: 
      type: 0
      typeString: 
  conversations:
  - id: 1
    fields:
    - title: Title
      value: Bark Conversation
      type: 0
      typeString: CustomFieldType_Text
    - title: Pictures
      value: '[]'
      type: 3
      typeString: CustomFieldType_Files
    - title: Description
      value: 
      type: 0
      typeString: CustomFieldType_Text
    - title: Actor
      value: 1
      type: 5
      typeString: CustomFieldType_Actor
    - title: Conversant
      value: 2
      type: 5
      typeString: CustomFieldType_Actor
    overrideSettings:
      useOverrides: 0
      overrideSubtitleSettings: 0
      showNPCSubtitlesDuringLine: 1
      showNPCSubtitlesWithResponses: 1
      showPCSubtitlesDuringLine: 0
      skipPCSubtitleAfterResponseMenu: 0
      subtitleCharsPerSecond: 30
      minSubtitleSeconds: 2
      continueButton: 0
      overrideSequenceSettings: 0
      defaultSequence: 
      defaultPlayerSequence: 
      defaultResponseMenuSequence: 
      overrideInputSettings: 0
      alwaysForceResponseMenu: 1
      includeInvalidEntries: 0
      responseTimeout: 0
      cancelSubtitle:
        key: 27
        buttonName: 
      cancelConversation:
        key: 27
        buttonName: 
    nodeColor: 
    dialogueEntries:
    - id: 0
      fields:
      - title: Title
        value: START
        type: 0
        typeString: 
      - title: Pictures
        value: '[]'
        type: 3
        typeString: CustomFieldType_Files
      - title: Description
        value: 
        type: 0
        typeString: 
      - title: Actor
        value: 1
        type: 5
        typeString: CustomFieldType_Actor
      - title: Conversant
        value: 2
        type: 5
        typeString: CustomFieldType_Actor
      - title: Menu Text
        value: 
        type: 0
        typeString: 
      - title: Dialogue Text
        value: 
        type: 0
        typeString: 
      - title: Sequence
        value: None()
        type: 0
        typeString: 
      - title: canvasRect
        value: 
        type: 0
        typeString: 
      conversationID: 1
      isRoot: 0
      isGroup: 0
      nodeColor: 
      delaySimStatus: 0
      falseConditionAction: 
      conditionPriority: 2
      outgoingLinks:
      - originConversationID: 1
        originDialogueID: 0
        destinationConversationID: 1
        destinationDialogueID: 1
        isConnector: 0
        priority: 2
      - originConversationID: 1
        originDialogueID: 0
        destinationConversationID: 1
        destinationDialogueID: 2
        isConnector: 0
        priority: 2
      - originConversationID: 1
        originDialogueID: 0
        destinationConversationID: 1
        destinationDialogueID: 3
        isConnector: 0
        priority: 2
      conditionsString: 
      userScript: 
      onExecute:
        m_PersistentCalls:
          m_Calls: []
      canvasRect:
        serializedVersion: 2
        x: 20
        y: 80
        width: 160
        height: 30
    - id: 1
      fields:
      - title: Title
        value: 
        type: 0
        typeString: CustomFieldType_Text
      - title: Pictures
        value: '[]'
        type: 3
        typeString: CustomFieldType_Files
      - title: Description
        value: 
        type: 0
        typeString: CustomFieldType_Text
      - title: Actor
        value: 2
        type: 5
        typeString: CustomFieldType_Actor
      - title: Conversant
        value: 1
        type: 5
        typeString: CustomFieldType_Actor
      - title: Menu Text
        value: 
        type: 0
        typeString: CustomFieldType_Text
      - title: Dialogue Text
        value: I smell a koala...
        type: 0
        typeString: CustomFieldType_Text
      - title: Sequence
        value: 
        type: 0
        typeString: CustomFieldType_Text
      - title: canvasRect
        value: 
        type: 0
        typeString: CustomFieldType_Text
      conversationID: 1
      isRoot: 0
      isGroup: 0
      nodeColor: 
      delaySimStatus: 0
      falseConditionAction: Block
      conditionPriority: 2
      outgoingLinks: []
      conditionsString: 
      userScript: 
      onExecute:
        m_PersistentCalls:
          m_Calls: []
      canvasRect:
        serializedVersion: 2
        x: 200
        y: 30
        width: 160
        height: 30
    - id: 2
      fields:
      - title: Title
        value: 
        type: 0
        typeString: CustomFieldType_Text
      - title: Pictures
        value: '[]'
        type: 3
        typeString: CustomFieldType_Files
      - title: Description
        value: 
        type: 0
        typeString: CustomFieldType_Text
      - title: Actor
        value: 2
        type: 5
        typeString: CustomFieldType_Actor
      - title: Conversant
        value: 1
        type: 5
        typeString: CustomFieldType_Actor
      - title: Menu Text
        value: 
        type: 0
        typeString: CustomFieldType_Text
      - title: Dialogue Text
        value: Intruder detected!
        type: 0
        typeString: CustomFieldType_Text
      - title: Sequence
        value: 
        type: 0
        typeString: CustomFieldType_Text
      - title: canvasRect
        value: 
        type: 0
        typeString: CustomFieldType_Text
      conversationID: 1
      isRoot: 0
      isGroup: 0
      nodeColor: 
      delaySimStatus: 0
      falseConditionAction: Block
      conditionPriority: 2
      outgoingLinks: []
      conditionsString: 
      userScript: 
      onExecute:
        m_PersistentCalls:
          m_Calls: []
      canvasRect:
        serializedVersion: 2
        x: 200
        y: 80
        width: 160
        height: 30
    - id: 3
      fields:
      - title: Title
        value: 
        type: 0
        typeString: CustomFieldType_Text
      - title: Pictures
        value: '[]'
        type: 3
        typeString: CustomFieldType_Files
      - title: Description
        value: 
        type: 0
        typeString: CustomFieldType_Text
      - title: Actor
        value: 2
        type: 5
        typeString: CustomFieldType_Actor
      - title: Conversant
        value: 1
        type: 5
        typeString: CustomFieldType_Actor
      - title: Menu Text
        value: 
        type: 0
        typeString: CustomFieldType_Text
      - title: Dialogue Text
        value: I must defeat the koala!
        type: 0
        typeString: CustomFieldType_Text
      - title: Sequence
        value: 
        type: 0
        typeString: CustomFieldType_Text
      - title: canvasRect
        value: 
        type: 0
        typeString: CustomFieldType_Text
      conversationID: 1
      isRoot: 0
      isGroup: 0
      nodeColor: 
      delaySimStatus: 0
      falseConditionAction: Block
      conditionPriority: 2
      outgoingLinks: []
      conditionsString: 
      userScript: 
      onExecute:
        m_PersistentCalls:
          m_Calls: []
      canvasRect:
        serializedVersion: 2
        x: 200
        y: 130
        width: 160
        height: 30
    entryGroups: []
    canvasScrollPosition: {x: 0, y: 0}
    canvasZoom: 1
  - id: 2
    fields:
    - title: Title
      value: Ninja Conversation
      type: 0
      typeString: CustomFieldType_Text
    - title: Pictures
      value: '[]'
      type: 3
      typeString: CustomFieldType_Files
    - title: Description
      value: 
      type: 0
      typeString: CustomFieldType_Text
    - title: Actor
      value: 1
      type: 5
      typeString: CustomFieldType_Actor
    - title: Conversant
      value: 2
      type: 5
      typeString: CustomFieldType_Actor
    overrideSettings:
      useOverrides: 0
      overrideSubtitleSettings: 0
      showNPCSubtitlesDuringLine: 1
      showNPCSubtitlesWithResponses: 1
      showPCSubtitlesDuringLine: 0
      skipPCSubtitleAfterResponseMenu: 0
      subtitleCharsPerSecond: 30
      minSubtitleSeconds: 2
      continueButton: 0
      overrideSequenceSettings: 0
      defaultSequence: 
      defaultPlayerSequence: 
      defaultResponseMenuSequence: 
      overrideInputSettings: 0
      alwaysForceResponseMenu: 1
      includeInvalidEntries: 0
      responseTimeout: 0
      cancelSubtitle:
        key: 27
        buttonName: 
      cancelConversation:
        key: 27
        buttonName: 
    nodeColor: 
    dialogueEntries:
    - id: 0
      fields:
      - title: Title
        value: START
        type: 0
        typeString: 
      - title: Pictures
        value: '[]'
        type: 3
        typeString: CustomFieldType_Files
      - title: Description
        value: 
        type: 0
        typeString: 
      - title: Actor
        value: 1
        type: 5
        typeString: CustomFieldType_Actor
      - title: Conversant
        value: 2
        type: 5
        typeString: CustomFieldType_Actor
      - title: Menu Text
        value: 
        type: 0
        typeString: 
      - title: Dialogue Text
        value: 
        type: 0
        typeString: 
      - title: Sequence
        value: None()
        type: 0
        typeString: 
      - title: canvasRect
        value: 
        type: 0
        typeString: 
      conversationID: 2
      isRoot: 0
      isGroup: 0
      nodeColor: 
      delaySimStatus: 0
      falseConditionAction: 
      conditionPriority: 2
      outgoingLinks:
      - originConversationID: 2
        originDialogueID: 0
        destinationConversationID: 2
        destinationDialogueID: 1
        isConnector: 0
        priority: 2
      conditionsString: 
      userScript: 
      onExecute:
        m_PersistentCalls:
          m_Calls: []
      canvasRect:
        serializedVersion: 2
        x: 20
        y: 30
        width: 160
        height: 30
    - id: 1
      fields:
      - title: Title
        value: 
        type: 0
        typeString: CustomFieldType_Text
      - title: Pictures
        value: '[]'
        type: 3
        typeString: CustomFieldType_Files
      - title: Description
        value: 
        type: 0
        typeString: CustomFieldType_Text
      - title: Actor
        value: 2
        type: 5
        typeString: CustomFieldType_Actor
      - title: Conversant
        value: 1
        type: 5
        typeString: CustomFieldType_Actor
      - title: Menu Text
        value: 
        type: 0
        typeString: CustomFieldType_Text
      - title: Dialogue Text
        value: Stop, intruder!
        type: 0
        typeString: CustomFieldType_Text
      - title: Sequence
        value: 
        type: 0
        typeString: CustomFieldType_Text
      - title: canvasRect
        value: 
        type: 0
        typeString: CustomFieldType_Text
      conversationID: 2
      isRoot: 0
      isGroup: 0
      nodeColor: 
      delaySimStatus: 0
      falseConditionAction: Block
      conditionPriority: 2
      outgoingLinks:
      - originConversationID: 2
        originDialogueID: 1
        destinationConversationID: 2
        destinationDialogueID: 2
        isConnector: 0
        priority: 2
      conditionsString: 
      userScript: 
      onExecute:
        m_PersistentCalls:
          m_Calls: []
      canvasRect:
        serializedVersion: 2
        x: 20
        y: 80
        width: 160
        height: 30
    - id: 2
      fields:
      - title: Title
        value: 
        type: 0
        typeString: CustomFieldType_Text
      - title: Pictures
        value: '[]'
        type: 3
        typeString: CustomFieldType_Files
      - title: Description
        value: 
        type: 0
        typeString: CustomFieldType_Text
      - title: Actor
        value: 1
        type: 5
        typeString: CustomFieldType_Actor
      - title: Conversant
        value: 2
        type: 5
        typeString: CustomFieldType_Actor
      - title: Menu Text
        value: 
        type: 0
        typeString: CustomFieldType_Text
      - title: Dialogue Text
        value: Or what?
        type: 0
        typeString: CustomFieldType_Text
      - title: Sequence
        value: 
        type: 0
        typeString: CustomFieldType_Text
      - title: canvasRect
        value: 
        type: 0
        typeString: CustomFieldType_Text
      conversationID: 2
      isRoot: 0
      isGroup: 0
      nodeColor: 
      delaySimStatus: 0
      falseConditionAction: Block
      conditionPriority: 2
      outgoingLinks:
      - originConversationID: 2
        originDialogueID: 2
        destinationConversationID: 2
        destinationDialogueID: 3
        isConnector: 0
        priority: 2
      conditionsString: 
      userScript: 
      onExecute:
        m_PersistentCalls:
          m_Calls: []
      canvasRect:
        serializedVersion: 2
        x: 20
        y: 130
        width: 160
        height: 30
    - id: 3
      fields:
      - title: Title
        value: 
        type: 0
        typeString: CustomFieldType_Text
      - title: Pictures
        value: '[]'
        type: 3
        typeString: CustomFieldType_Files
      - title: Description
        value: 
        type: 0
        typeString: CustomFieldType_Text
      - title: Actor
        value: 2
        type: 5
        typeString: CustomFieldType_Actor
      - title: Conversant
        value: 1
        type: 5
        typeString: CustomFieldType_Actor
      - title: Menu Text
        value: 
        type: 0
        typeString: CustomFieldType_Text
      - title: Dialogue Text
        value: Or my fellow warriors will defeat you!
        type: 0
        typeString: CustomFieldType_Text
      - title: Sequence
        value: 
        type: 0
        typeString: CustomFieldType_Text
      - title: canvasRect
        value: 
        type: 0
        typeString: CustomFieldType_Text
      conversationID: 2
      isRoot: 0
      isGroup: 0
      nodeColor: 
      delaySimStatus: 0
      falseConditionAction: Block
      conditionPriority: 2
      outgoingLinks: []
      conditionsString: 
      userScript: 
      onExecute:
        m_PersistentCalls:
          m_Calls: []
      canvasRect:
        serializedVersion: 2
        x: 20
        y: 180
        width: 160
        height: 30
    entryGroups: []
    canvasScrollPosition: {x: 0, y: 0}
    canvasZoom: 1
  - id: 3
    fields:
    - title: Title
      value: Quest Conversation
      type: 0
      typeString: CustomFieldType_Text
    - title: Pictures
      value: '[]'
      type: 3
      typeString: CustomFieldType_Files
    - title: Description
      value: 
      type: 0
      typeString: CustomFieldType_Text
    - title: Actor
      value: 1
      type: 5
      typeString: CustomFieldType_Actor
    - title: Conversant
      value: 4
      type: 5
      typeString: CustomFieldType_Actor
    overrideSettings:
      useOverrides: 0
      overrideSubtitleSettings: 0
      showNPCSubtitlesDuringLine: 1
      showNPCSubtitlesWithResponses: 1
      showPCSubtitlesDuringLine: 0
      skipPCSubtitleAfterResponseMenu: 0
      subtitleCharsPerSecond: 30
      minSubtitleSeconds: 2
      continueButton: 0
      overrideSequenceSettings: 0
      defaultSequence: 
      defaultPlayerSequence: 
      defaultResponseMenuSequence: 
      overrideInputSettings: 0
      alwaysForceResponseMenu: 1
      includeInvalidEntries: 0
      responseTimeout: 0
      cancelSubtitle:
        key: 27
        buttonName: 
      cancelConversation:
        key: 27
        buttonName: 
    nodeColor: 
    dialogueEntries:
    - id: 0
      fields:
      - title: Title
        value: START
        type: 0
        typeString: 
      - title: Description
        value: 
        type: 0
        typeString: 
      - title: Actor
        value: 1
        type: 5
        typeString: CustomFieldType_Actor
      - title: Conversant
        value: 4
        type: 5
        typeString: CustomFieldType_Actor
      - title: Menu Text
        value: 
        type: 0
        typeString: 
      - title: Dialogue Text
        value: 
        type: 0
        typeString: 
      - title: Sequence
        value: None()
        type: 0
        typeString: 
      - title: Response Menu Sequence
        value: 
        type: 0
        typeString: 
      conversationID: 3
      isRoot: 0
      isGroup: 0
      nodeColor: 
      delaySimStatus: 0
      falseConditionAction: Block
      conditionPriority: 2
      outgoingLinks:
      - originConversationID: 3
        originDialogueID: 0
        destinationConversationID: 3
        destinationDialogueID: 1
        isConnector: 0
        priority: 2
      - originConversationID: 3
        originDialogueID: 0
        destinationConversationID: 3
        destinationDialogueID: 2
        isConnector: 0
        priority: 2
      - originConversationID: 3
        originDialogueID: 0
        destinationConversationID: 3
        destinationDialogueID: 3
        isConnector: 0
        priority: 2
      - originConversationID: 3
        originDialogueID: 0
        destinationConversationID: 3
        destinationDialogueID: 13
        isConnector: 0
        priority: 2
      - originConversationID: 3
        originDialogueID: 0
        destinationConversationID: 3
        destinationDialogueID: 14
        isConnector: 0
        priority: 2
      conditionsString: 
      userScript: 
      onExecute:
        m_PersistentCalls:
          m_Calls: []
      canvasRect:
        serializedVersion: 2
        x: 520
        y: 16
        width: 160
        height: 30
    - id: 1
      fields:
      - title: Title
        value: 
        type: 0
        typeString: CustomFieldType_Text
      - title: Description
        value: 
        type: 0
        typeString: CustomFieldType_Text
      - title: Actor
        value: 4
        type: 5
        typeString: CustomFieldType_Actor
      - title: Conversant
        value: 1
        type: 5
        typeString: CustomFieldType_Actor
      - title: Menu Text
        value: 
        type: 0
        typeString: CustomFieldType_Text
      - title: Dialogue Text
        value: I'm a spy sent to infiltrate these evil ninja. Can you help me?
        type: 0
        typeString: CustomFieldType_Text
      - title: Sequence
        value: 
        type: 0
        typeString: CustomFieldType_Text
      - title: Response Menu Sequence
        value: 
        type: 0
        typeString: CustomFieldType_Text
      conversationID: 3
      isRoot: 0
      isGroup: 0
      nodeColor: 
      delaySimStatus: 0
      falseConditionAction: Block
      conditionPriority: 2
      outgoingLinks:
      - originConversationID: 3
        originDialogueID: 1
        destinationConversationID: 3
        destinationDialogueID: 4
        isConnector: 0
        priority: 2
      - originConversationID: 3
        originDialogueID: 1
        destinationConversationID: 3
        destinationDialogueID: 5
        isConnector: 0
        priority: 2
      conditionsString: CurrentQuestState("Break Into Room") == "unassigned"
      userScript: 
      onExecute:
        m_PersistentCalls:
          m_Calls: []
      canvasRect:
        serializedVersion: 2
        x: 255
        y: 55
        width: 160
        height: 30
    - id: 2
      fields:
      - title: Title
        value: 
        type: 0
        typeString: CustomFieldType_Text
      - title: Description
        value: 
        type: 0
        typeString: CustomFieldType_Text
      - title: Actor
        value: 4
        type: 5
        typeString: CustomFieldType_Actor
      - title: Conversant
        value: 1
        type: 5
        typeString: CustomFieldType_Actor
      - title: Menu Text
        value: 
        type: 0
        typeString: CustomFieldType_Text
      - title: Dialogue Text
        value: How's it coming with the door?
        type: 0
        typeString: CustomFieldType_Text
      - title: Sequence
        value: 
        type: 0
        typeString: CustomFieldType_Text
      - title: Response Menu Sequence
        value: 
        type: 0
        typeString: CustomFieldType_Text
      conversationID: 3
      isRoot: 0
      isGroup: 0
      nodeColor: 
      delaySimStatus: 0
      falseConditionAction: Block
      conditionPriority: 2
      outgoingLinks:
      - originConversationID: 3
        originDialogueID: 2
        destinationConversationID: 3
        destinationDialogueID: 6
        isConnector: 0
        priority: 2
      conditionsString: CurrentQuestState("Break Into Room") == "active"
      userScript: 
      onExecute:
        m_PersistentCalls:
          m_Calls: []
      canvasRect:
        serializedVersion: 2
        x: 520
        y: 65
        width: 160
        height: 30
    - id: 3
      fields:
      - title: Title
        value: 
        type: 0
        typeString: CustomFieldType_Text
      - title: Description
        value: 
        type: 0
        typeString: CustomFieldType_Text
      - title: Actor
        value: 4
        type: 5
        typeString: CustomFieldType_Actor
      - title: Conversant
        value: 1
        type: 5
        typeString: CustomFieldType_Actor
      - title: Menu Text
        value: 
        type: 0
        typeString: CustomFieldType_Text
      - title: Dialogue Text
        value: Thanks for getting that door open! Can you get me 5 rifle ammo?
        type: 0
        typeString: CustomFieldType_Text
      - title: Sequence
        value: 
        type: 0
        typeString: CustomFieldType_Text
      - title: Response Menu Sequence
        value: 
        type: 0
        typeString: CustomFieldType_Text
      conversationID: 3
      isRoot: 0
      isGroup: 0
      nodeColor: 
      delaySimStatus: 0
      falseConditionAction: Block
      conditionPriority: 2
      outgoingLinks:
      - originConversationID: 3
        originDialogueID: 3
        destinationConversationID: 3
        destinationDialogueID: 10
        isConnector: 0
        priority: 2
      - originConversationID: 3
        originDialogueID: 3
        destinationConversationID: 3
        destinationDialogueID: 11
        isConnector: 0
        priority: 2
      - originConversationID: 3
        originDialogueID: 3
        destinationConversationID: 3
        destinationDialogueID: 12
        isConnector: 0
        priority: 2
      conditionsString: CurrentQuestState("Break Into Room") == "success" and (CurrentQuestState("Get
        Ammo") == "unassigned")
      userScript: 
      onExecute:
        m_PersistentCalls:
          m_Calls: []
      canvasRect:
        serializedVersion: 2
        x: 799
        y: 65
        width: 160
        height: 30
    - id: 4
      fields:
      - title: Title
        value: 
        type: 0
        typeString: CustomFieldType_Text
      - title: Description
        value: 
        type: 0
        typeString: CustomFieldType_Text
      - title: Actor
        value: 1
        type: 5
        typeString: CustomFieldType_Actor
      - title: Conversant
        value: 4
        type: 5
        typeString: CustomFieldType_Actor
      - title: Menu Text
        value: 
        type: 0
        typeString: CustomFieldType_Text
      - title: Dialogue Text
        value: What do you need?
        type: 0
        typeString: CustomFieldType_Text
      - title: Sequence
        value: 
        type: 0
        typeString: CustomFieldType_Text
      - title: Response Menu Sequence
        value: 
        type: 0
        typeString: CustomFieldType_Text
      conversationID: 3
      isRoot: 0
      isGroup: 0
      nodeColor: 
      delaySimStatus: 0
      falseConditionAction: Block
      conditionPriority: 2
      outgoingLinks:
      - originConversationID: 3
        originDialogueID: 4
        destinationConversationID: 3
        destinationDialogueID: 8
        isConnector: 0
        priority: 2
      conditionsString: 
      userScript: 
      onExecute:
        m_PersistentCalls:
          m_Calls: []
      canvasRect:
        serializedVersion: 2
        x: 144
        y: 114
        width: 160
        height: 30
    - id: 5
      fields:
      - title: Title
        value: 
        type: 0
        typeString: CustomFieldType_Text
      - title: Description
        value: 
        type: 0
        typeString: CustomFieldType_Text
      - title: Actor
        value: 1
        type: 5
        typeString: CustomFieldType_Actor
      - title: Conversant
        value: 4
        type: 5
        typeString: CustomFieldType_Actor
      - title: Menu Text
        value: 
        type: 0
        typeString: CustomFieldType_Text
      - title: Dialogue Text
        value: Sorry, can't help now.
        type: 0
        typeString: CustomFieldType_Text
      - title: Sequence
        value: 
        type: 0
        typeString: CustomFieldType_Text
      - title: Response Menu Sequence
        value: 
        type: 0
        typeString: CustomFieldType_Text
      conversationID: 3
      isRoot: 0
      isGroup: 0
      nodeColor: 
      delaySimStatus: 0
      falseConditionAction: Block
      conditionPriority: 2
      outgoingLinks: []
      conditionsString: 
      userScript: 
      onExecute:
        m_PersistentCalls:
          m_Calls: []
      canvasRect:
        serializedVersion: 2
        x: 324
        y: 114
        width: 160
        height: 30
    - id: 6
      fields:
      - title: Title
        value: 
        type: 0
        typeString: CustomFieldType_Text
      - title: Description
        value: 
        type: 0
        typeString: CustomFieldType_Text
      - title: Actor
        value: 1
        type: 5
        typeString: CustomFieldType_Actor
      - title: Conversant
        value: 4
        type: 5
        typeString: CustomFieldType_Actor
      - title: Menu Text
        value: 
        type: 0
        typeString: CustomFieldType_Text
      - title: Dialogue Text
        value: I'm still looking for the key. I'll be back.
        type: 0
        typeString: CustomFieldType_Text
      - title: Sequence
        value: 
        type: 0
        typeString: CustomFieldType_Text
      - title: Response Menu Sequence
        value: 
        type: 0
        typeString: CustomFieldType_Text
      conversationID: 3
      isRoot: 0
      isGroup: 0
      nodeColor: 
      delaySimStatus: 0
      falseConditionAction: Block
      conditionPriority: 2
      outgoingLinks: []
      conditionsString: 
      userScript: 
      onExecute:
        m_PersistentCalls:
          m_Calls: []
      canvasRect:
        serializedVersion: 2
        x: 520
        y: 121
        width: 160
        height: 30
    - id: 8
      fields:
      - title: Title
        value: 
        type: 0
        typeString: CustomFieldType_Text
      - title: Description
        value: 
        type: 0
        typeString: CustomFieldType_Text
      - title: Actor
        value: 4
        type: 5
        typeString: CustomFieldType_Actor
      - title: Conversant
        value: 1
        type: 5
        typeString: CustomFieldType_Actor
      - title: Menu Text
        value: 
        type: 0
        typeString: CustomFieldType_Text
      - title: Dialogue Text
        value: I can't get into the room above. Can you find a key to open the door
          and check out the room?
        type: 0
        typeString: CustomFieldType_Text
      - title: Sequence
        value: 
        type: 0
        typeString: CustomFieldType_Text
      - title: Response Menu Sequence
        value: 
        type: 0
        typeString: CustomFieldType_Text
      conversationID: 3
      isRoot: 0
      isGroup: 0
      nodeColor: 
      delaySimStatus: 0
      falseConditionAction: Block
      conditionPriority: 2
      outgoingLinks:
      - originConversationID: 3
        originDialogueID: 8
        destinationConversationID: 3
        destinationDialogueID: 9
        isConnector: 0
        priority: 2
      - originConversationID: 3
        originDialogueID: 8
        destinationConversationID: 3
        destinationDialogueID: 5
        isConnector: 0
        priority: 2
      conditionsString: 
      userScript: 
      onExecute:
        m_PersistentCalls:
          m_Calls: []
      canvasRect:
        serializedVersion: 2
        x: 144
        y: 164
        width: 160
        height: 30
    - id: 9
      fields:
      - title: Title
        value: 
        type: 0
        typeString: CustomFieldType_Text
      - title: Description
        value: 
        type: 0
        typeString: CustomFieldType_Text
      - title: Actor
        value: 1
        type: 5
        typeString: CustomFieldType_Actor
      - title: Conversant
        value: 4
        type: 5
        typeString: CustomFieldType_Actor
      - title: Menu Text
        value: 
        type: 0
        typeString: CustomFieldType_Text
      - title: Dialogue Text
        value: I'll do it.
        type: 0
        typeString: CustomFieldType_Text
      - title: Sequence
        value: 
        type: 0
        typeString: CustomFieldType_Text
      - title: Response Menu Sequence
        value: 
        type: 0
        typeString: CustomFieldType_Text
      conversationID: 3
      isRoot: 0
      isGroup: 0
      nodeColor: 
      delaySimStatus: 0
      falseConditionAction: Block
      conditionPriority: 2
      outgoingLinks: []
      conditionsString: 
      userScript: 'ShowAlert("New Quest: Break Into Room");

        SetQuestState("Break
        Into Room", "active")'
      onExecute:
        m_PersistentCalls:
          m_Calls: []
      canvasRect:
        serializedVersion: 2
        x: 140
        y: 218
        width: 160
        height: 30
    - id: 10
      fields:
      - title: Title
        value: 
        type: 0
        typeString: 
      - title: Pictures
        value: '[]'
        type: 3
        typeString: CustomFieldType_Files
      - title: Description
        value: 
        type: 0
        typeString: 
      - title: Actor
        value: 1
        type: 5
        typeString: CustomFieldType_Actor
      - title: Conversant
        value: 4
        type: 5
        typeString: CustomFieldType_Actor
      - title: Menu Text
        value: 
        type: 0
        typeString: 
      - title: Dialogue Text
        value: Get it yourself.
        type: 0
        typeString: 
      - title: Parenthetical
        value: 
        type: 0
        typeString: 
      - title: Audio Files
        value: '[]'
        type: 3
        typeString: CustomFieldType_Files
      - title: Video File
        value: 
        type: 0
        typeString: 
      - title: Sequence
        value: 
        type: 0
        typeString: 
      conversationID: 3
      isRoot: 0
      isGroup: 0
      nodeColor: 
      delaySimStatus: 0
      falseConditionAction: Block
      conditionPriority: 2
      outgoingLinks: []
      conditionsString: 
      userScript: 
      onExecute:
        m_PersistentCalls:
          m_Calls: []
      canvasRect:
        serializedVersion: 2
        x: 715
        y: 120
        width: 160
        height: 30
    - id: 11
      fields:
      - title: Title
        value: 
        type: 0
        typeString: 
      - title: Pictures
        value: '[]'
        type: 3
        typeString: CustomFieldType_Files
      - title: Description
        value: 
        type: 0
        typeString: 
      - title: Actor
        value: 1
        type: 5
        typeString: CustomFieldType_Actor
      - title: Conversant
        value: 4
        type: 5
        typeString: CustomFieldType_Actor
      - title: Menu Text
        value: 
        type: 0
        typeString: 
      - title: Dialogue Text
        value: I'll be back with the ammo.
        type: 0
        typeString: 
      - title: Parenthetical
        value: 
        type: 0
        typeString: 
      - title: Audio Files
        value: '[]'
        type: 3
        typeString: CustomFieldType_Files
      - title: Video File
        value: 
        type: 0
        typeString: 
      - title: Sequence
        value: 
        type: 0
        typeString: 
      conversationID: 3
      isRoot: 0
      isGroup: 0
      nodeColor: 
      delaySimStatus: 0
      falseConditionAction: Block
      conditionPriority: 2
      outgoingLinks: []
      conditionsString: 
      userScript: SetQuestState("Get Ammo", "active")
      onExecute:
        m_PersistentCalls:
          m_Calls: []
      canvasRect:
        serializedVersion: 2
        x: 885
        y: 121
        width: 160
        height: 30
    - id: 12
      fields:
      - title: Title
        value: 
        type: 0
        typeString: 
      - title: Pictures
        value: '[]'
        type: 3
        typeString: CustomFieldType_Files
      - title: Description
        value: 
        type: 0
        typeString: 
      - title: Actor
        value: 1
        type: 5
        typeString: CustomFieldType_Actor
      - title: Conversant
        value: 4
        type: 5
        typeString: CustomFieldType_Actor
      - title: Menu Text
        value: 
        type: 0
        typeString: 
      - title: Dialogue Text
        value: Here's 5 ammo.
        type: 0
        typeString: 
      - title: Parenthetical
        value: 
        type: 0
        typeString: 
      - title: Audio Files
        value: '[]'
        type: 3
        typeString: CustomFieldType_Files
      - title: Video File
        value: 
        type: 0
        typeString: 
      - title: Sequence
        value: 
        type: 0
        typeString: 
      conversationID: 3
      isRoot: 0
      isGroup: 0
      nodeColor: 
      delaySimStatus: 0
      falseConditionAction: Block
      conditionPriority: 2
      outgoingLinks: []
      conditionsString: mmGetQuantity("KoalaMainInventory", "KoalaRifleAmmo") >=
        5
      userScript: 'mmRemoveItem("KoalaMainInventory", "KoalaRifleAmmo", 5);

        SetQuestState("Get
        Ammo", "success");

        ShowAlert("Mission Complete: Give Ammo To Spy")'
      onExecute:
        m_PersistentCalls:
          m_Calls: []
      canvasRect:
        serializedVersion: 2
        x: 1054
        y: 121
        width: 160
        height: 30
    - id: 13
      fields:
      - title: Title
        value: 
        type: 0
        typeString: 
      - title: Pictures
        value: '[]'
        type: 3
        typeString: CustomFieldType_Files
      - title: Description
        value: 
        type: 0
        typeString: 
      - title: Actor
        value: 4
        type: 5
        typeString: CustomFieldType_Actor
      - title: Conversant
        value: 1
        type: 5
        typeString: CustomFieldType_Actor
      - title: Menu Text
        value: 
        type: 0
        typeString: 
      - title: Dialogue Text
        value: Do you have the rifle ammo?
        type: 0
        typeString: 
      - title: Parenthetical
        value: 
        type: 0
        typeString: 
      - title: Audio Files
        value: '[]'
        type: 3
        typeString: CustomFieldType_Files
      - title: Video File
        value: 
        type: 0
        typeString: 
      - title: Sequence
        value: 
        type: 0
        typeString: 
      conversationID: 3
      isRoot: 0
      isGroup: 0
      nodeColor: 
      delaySimStatus: 0
      falseConditionAction: Block
      conditionPriority: 2
      outgoingLinks:
      - originConversationID: 3
        originDialogueID: 13
        destinationConversationID: 3
        destinationDialogueID: 12
        isConnector: 0
        priority: 2
      - originConversationID: 3
        originDialogueID: 13
        destinationConversationID: 3
        destinationDialogueID: 15
        isConnector: 0
        priority: 2
      conditionsString: CurrentQuestState("Get Ammo") == "active"
      userScript: 
      onExecute:
        m_PersistentCalls:
          m_Calls: []
      canvasRect:
        serializedVersion: 2
        x: 1131
        y: 68
        width: 160
        height: 30
    - id: 14
      fields:
      - title: Title
        value: 
        type: 0
        typeString: 
      - title: Pictures
        value: '[]'
        type: 3
        typeString: CustomFieldType_Files
      - title: Description
        value: 
        type: 0
        typeString: 
      - title: Actor
        value: 4
        type: 5
        typeString: CustomFieldType_Actor
      - title: Conversant
        value: 1
        type: 5
        typeString: CustomFieldType_Actor
      - title: Menu Text
        value: 
        type: 0
        typeString: 
      - title: Dialogue Text
        value: Thanks for getting me the ammo.
        type: 0
        typeString: 
      - title: Parenthetical
        value: 
        type: 0
        typeString: 
      - title: Audio Files
        value: '[]'
        type: 3
        typeString: CustomFieldType_Files
      - title: Video File
        value: 
        type: 0
        typeString: 
      - title: Sequence
        value: 
        type: 0
        typeString: 
      conversationID: 3
      isRoot: 0
      isGroup: 0
      nodeColor: 
      delaySimStatus: 0
      falseConditionAction: Block
      conditionPriority: 2
      outgoingLinks: []
      conditionsString: CurrentQuestState("Get Ammo") == "success"
      userScript: 
      onExecute:
        m_PersistentCalls:
          m_Calls: []
      canvasRect:
        serializedVersion: 2
        x: 1352
        y: 65
        width: 160
        height: 30
    - id: 15
      fields:
      - title: Title
        value: 
        type: 0
        typeString: 
      - title: Pictures
        value: '[]'
        type: 3
        typeString: CustomFieldType_Files
      - title: Description
        value: 
        type: 0
        typeString: 
      - title: Actor
        value: 1
        type: 5
        typeString: CustomFieldType_Actor
      - title: Conversant
        value: 4
        type: 5
        typeString: CustomFieldType_Actor
      - title: Menu Text
        value: 
        type: 0
        typeString: 
      - title: Dialogue Text
        value: Not yet.
        type: 0
        typeString: 
      - title: Parenthetical
        value: 
        type: 0
        typeString: 
      - title: Audio Files
        value: '[]'
        type: 3
        typeString: CustomFieldType_Files
      - title: Video File
        value: 
        type: 0
        typeString: 
      - title: Sequence
        value: 
        type: 0
        typeString: 
      conversationID: 3
      isRoot: 0
      isGroup: 0
      nodeColor: 
      delaySimStatus: 0
      falseConditionAction: Block
      conditionPriority: 2
      outgoingLinks: []
      conditionsString: 
      userScript: 
      onExecute:
        m_PersistentCalls:
          m_Calls: []
      canvasRect:
        serializedVersion: 2
        x: 1228
        y: 119
        width: 160
        height: 30
    entryGroups: []
    canvasScrollPosition: {x: 45, y: 0}
    canvasZoom: 1
  syncInfo:
    syncActors: 0
    syncItems: 0
    syncLocations: 0
    syncVariables: 0
    syncActorsDatabase: {fileID: 0}
    syncItemsDatabase: {fileID: 0}
    syncLocationsDatabase: {fileID: 0}
    syncVariablesDatabase: {fileID: 0}
  templateJson: '{"treatItemsAsQuests":true,"actorFields":[{"title":"Name","value":"","type":0,"typeString":""},{"title":"Pictures","value":"[]","type":3,"typeString":"CustomFieldType_Files"},{"title":"Description","value":"","type":0,"typeString":""},{"title":"IsPlayer","value":"False","type":2,"typeString":"CustomFieldType_Boolean"}],"itemFields":[{"title":"Name","value":"","type":0,"typeString":"CustomFieldType_Text"},{"title":"Pictures","value":"[]","type":3,"typeString":"CustomFieldType_Files"},{"title":"Description","value":"","type":0,"typeString":"CustomFieldType_Text"},{"title":"Is
    Item","value":"True","type":2,"typeString":"CustomFieldType_Boolean"}],"questFields":[{"title":"Name","value":"","type":0,"typeString":"CustomFieldType_Text"},{"title":"Pictures","value":"[]","type":3,"typeString":"CustomFieldType_Files"},{"title":"Description","value":"","type":0,"typeString":"CustomFieldType_Text"},{"title":"Success
    Description","value":"","type":0,"typeString":"CustomFieldType_Text"},{"title":"Failure
    Description","value":"","type":0,"typeString":"CustomFieldType_Text"},{"title":"State","value":"unassigned","type":0,"typeString":"CustomFieldType_QuestState"},{"title":"Is
    Item","value":"False","type":2,"typeString":"CustomFieldType_Boolean"}],"locationFields":[{"title":"Name","value":"","type":0,"typeString":""},{"title":"Pictures","value":"[]","type":3,"typeString":"CustomFieldType_Files"},{"title":"Description","value":"","type":0,"typeString":""}],"variableFields":[{"title":"Name","value":"","type":0,"typeString":""},{"title":"Initial
    Value","value":"","type":0,"typeString":""},{"title":"Description","value":"","type":0,"typeString":""}],"conversationFields":[{"title":"Title","value":"","type":0,"typeString":""},{"title":"Pictures","value":"[]","type":3,"typeString":"CustomFieldType_Files"},{"title":"Description","value":"","type":0,"typeString":""},{"title":"Actor","value":"0","type":5,"typeString":"CustomFieldType_Actor"},{"title":"Conversant","value":"0","type":5,"typeString":"CustomFieldType_Actor"}],"dialogueEntryFields":[{"title":"Title","value":"","type":0,"typeString":""},{"title":"Pictures","value":"[]","type":3,"typeString":"CustomFieldType_Files"},{"title":"Description","value":"","type":0,"typeString":""},{"title":"Actor","value":"","type":5,"typeString":"CustomFieldType_Actor"},{"title":"Conversant","value":"","type":5,"typeString":"CustomFieldType_Actor"},{"title":"Menu
    Text","value":"","type":0,"typeString":""},{"title":"Dialogue Text","value":"","type":0,"typeString":""},{"title":"Parenthetical","value":"","type":0,"typeString":""},{"title":"Audio
    Files","value":"[]","type":3,"typeString":"CustomFieldType_Files"},{"title":"Video
    File","value":"","type":0,"typeString":""},{"title":"Sequence","value":"","type":0,"typeString":""}],"actorPrimaryFieldTitles":[],"itemPrimaryFieldTitles":[],"questPrimaryFieldTitles":[],"locationPrimaryFieldTitles":[],"variablePrimaryFieldTitles":[],"conversationPrimaryFieldTitles":[],"dialogueEntryPrimaryFieldTitles":[],"npcLineColor":{"r":1.0,"g":0.0,"b":0.0,"a":1.0},"pcLineColor":{"r":0.0,"g":0.0,"b":1.0,"a":1.0},"repeatLineColor":{"r":0.5,"g":0.5,"b":0.5,"a":1.0}}'
